<?xml version="1.0" encoding="utf-8"?>
<!-- Generator: Adobe Illustrator 21.1.0, SVG Export Plug-In . SVG Version: 6.00 Build 0)  -->
<svg version="1.1" id="Layer_1" xmlns="http://www.w3.org/2000/svg" xmlns:xlink="http://www.w3.org/1999/xlink" x="0px" y="0px"
	 viewBox="0 0 368.8 153.4" style="enable-background:new 0 0 368.8 153.4;" xml:space="preserve">
<style type="text/css">
	.st0{fill:#FBBE06;}
	.st1{fill:#FDC719;}
</style>
<title>Alafestivais_logo</title>
<polygon class="st0" points="79.8,75.9 70,95.9 92,95.9 103.6,69.2 "/>
<path class="st1" d="M112.2,49.6l14.6-33.5l2.1,28.7c6.2-1.7,12.4-3.3,18.5-4.8l-5-40.1h-25.5L89.3,56.4
	C92.8,55.3,99.4,53.3,112.2,49.6z"/>
<polygon class="st0" points="130.1,61.6 132.6,95.9 154.3,95.9 149.4,56.2 "/>
<path class="st1" d="M195.1,29.1L200.7,0h-20.5l-6.5,33.9C182.7,31.7,190.2,30.2,195.1,29.1z"/>
<polygon class="st0" points="185.9,78.3 192.4,43.9 170.5,50.1 161.7,95.9 219.5,95.9 222.6,78.3 "/>
<path class="st0" d="M251.6,46.2l-24.2,49.7h22l23.1-53.3C265,43.9,257.4,45.1,251.6,46.2z"/>
<polygon class="st1" points="279.6,26.3 284.1,16.1 284.8,25.4 302.4,21.8 299.8,0 274.2,0 259.4,30.4 "/>
<path class="st0" d="M304.4,37.4c-4.4,0.7-11.1,1.7-18.5,2.9l4.1,55.6h21.7L304.4,37.4z"/>
<path class="st0" d="M155.7,153.4c0,0-120-4.8-119.4-36.2c0.7-44.4,239-91.3,331.3-100.3l1.2-5.4c0,0-45.1,3.7-128.7,19.7
	c-29.2,5.7-80.8,16-116.1,25.8C53.5,76.7,1.2,103,0,119c-1.2,17,34.7,25.7,58,28.6C102.5,153.4,155.7,153.4,155.7,153.4z"/>
<path class="st0" d="M135.7,145.3l6.6-38.8h20.6l-0.7,4.4h-16.3l-2.1,12.4h16.6l-0.7,4.4H143l-3,17.6L135.7,145.3z"/>
<path class="st0" d="M160.1,145.3l6.6-38.8h22.9l-0.7,4.4h-18.6l-2.1,12.1h18.1l-0.7,4.4h-18.1l-2.3,13.5H185l-0.8,4.4L160.1,145.3z
	"/>
<path class="st0" d="M187.9,132.8l4.2-0.5v1.3c0,1.6,0.3,3.2,1.1,4.6c0.6,1.1,1.5,2,2.7,2.5c1.4,0.7,3,1,4.5,1
	c2.1,0.1,4.1-0.6,5.8-1.9c1.4-1.2,2.2-3,2.1-4.8c0-1.3-0.4-2.5-1.2-3.5c-0.8-1-2.8-2.3-5.8-3.9c-1.7-0.8-3.3-1.8-4.8-2.8
	c-1.4-1-2.6-2.3-3.4-3.8c-0.7-1.5-1.1-3.1-1.1-4.8c-0.1-2.8,1-5.5,3-7.5c2-1.9,4.7-2.9,8.2-2.9c2.1-0.1,4.2,0.4,6.1,1.3
	c1.7,0.9,3.1,2.3,4,3.9c1,1.7,1.5,3.6,1.5,5.6v0.8l-4.1,0.4v-0.9c0-1.2-0.3-2.4-0.9-3.5c-0.6-1.1-1.6-2-2.7-2.5
	c-1.2-0.6-2.6-0.9-4-0.9c-1.8-0.1-3.6,0.5-5.1,1.6c-1.2,1.1-1.9,2.6-1.8,4.2c-0.1,1.4,0.4,2.7,1.4,3.6c2.1,1.6,4.4,3,6.8,4.2
	c1.9,1,3.7,2.1,5.4,3.5c1,0.9,1.7,2,2.2,3.2c1.7,4.3,0.6,9.1-2.6,12.3c-2.5,2.2-5.7,3.4-9,3.2c-4,0-7-1.1-9.1-3.2
	C189,140.7,187.9,137.4,187.9,132.8z"/>
<path class="st0" d="M221.7,145.3l5.9-34.4h-10.4l0.8-4.4h25l-0.7,4.4h-10.3l-5.9,34.4H221.7z"/>
<path class="st0" d="M238.1,145.3l6.6-38.8h4.3l-6.6,38.8H238.1z"/>
<path class="st0" d="M257.1,145.3l-6.1-38.8h4.1l3.7,23.1c0.7,4.2,1.1,7.6,1.3,10.2c1.3-3.4,2.4-6,3.3-7.9l11.3-25.4h4.4l-17.5,38.8
	H257.1z"/>
<path class="st0" d="M267.5,145.3l18.1-38.8h5l5.3,38.8h-4.1l-1.5-11.2h-12.9l-5.1,11.2H267.5z M279,130.2h10.5l-1.2-9.7
	c-0.5-3.8-0.8-7.1-0.9-9.7c-0.9,2.7-1.9,5.3-3.1,7.9L279,130.2z"/>
<path class="st0" d="M297.3,145.3l6.6-38.8h4.3l-6.6,38.8H297.3z"/>
<path class="st0" d="M307.9,132.8l4.2-0.5v1.3c0,1.6,0.3,3.2,1.1,4.6c0.6,1.1,1.5,2,2.7,2.5c1.4,0.7,3,1,4.5,1
	c2.1,0.1,4.1-0.6,5.8-1.9c1.4-1.2,2.2-3,2.1-4.8c0-1.3-0.4-2.5-1.2-3.5c-0.8-1-2.8-2.3-5.8-3.9c-1.7-0.8-3.3-1.8-4.8-2.8
	c-1.4-1-2.6-2.3-3.4-3.8c-0.7-1.5-1.1-3.1-1.1-4.8c-0.1-2.8,1-5.5,3-7.5c2-1.9,4.7-2.9,8.2-2.9c2.1-0.1,4.2,0.4,6.1,1.3
	c1.7,0.9,3.1,2.3,4,3.9c1,1.7,1.5,3.6,1.5,5.6v0.8l-4.1,0.4v-0.9c0-1.2-0.3-2.4-0.9-3.5c-0.6-1.1-1.6-2-2.7-2.5
	c-1.2-0.6-2.6-0.9-4-0.9c-1.8-0.1-3.6,0.5-5.1,1.6c-1.2,1.1-1.9,2.6-1.8,4.2c-0.1,1.4,0.4,2.7,1.4,3.6c2.1,1.6,4.4,3,6.8,4.2
	c1.9,1,3.7,2.1,5.4,3.5c1,0.9,1.7,2,2.2,3.2c1.6,4.3,0.6,9.1-2.7,12.3c-2.5,2.2-5.7,3.4-9,3.2c-4,0-7-1.1-9.1-3.2
	S307.8,137.3,307.9,132.8z"/>
</svg>
